{
  "code": 200,
  "meta": {
    "pagination": {
      "total": 1504,
      "pages": 76,
      "page": 76,
      "limit": 20
    }
  },
  "data": [
    {
      "id": 1579,
      "name": "Girid",
      "email": "gafsdafsdid@gmail.com",
      "gender": "Male",
      "status": "Active",
      "created_at": "2021-02-16T16:10:19.681+05:30",
      "updated_at": "2021-02-16T16:10:19.681+05:30"
    },
    {
      "id": 1580,
      "name": "Tena",
      "email": "wwwww@15ce.com",
      "gender": "Male",
      "status": "Active",
      "created_at": "2021-02-16T16:11:57.974+05:30",
      "updated_at": "2021-02-16T16:11:57.974+05:30"
    },
    {
      "id": 1581,
      "name": "wow name",
      "email": "wow-5254@mailinator.com",
      "gender": "Male",
      "status": "Inactive",
      "created_at": "2021-02-16T16:12:49.123+05:30",
      "updated_at": "2021-02-16T16:12:49.123+05:30"
    },
    {
      "id": 1582,
      "name": "wow name",
      "email": "wow-4941@mailinator.com",
      "gender": "Male",
      "status": "Inactive",
      "created_at": "2021-02-16T16:13:19.139+05:30",
      "updated_at": "2021-02-16T16:13:19.139+05:30"
    }
  ]
}