{
  "code": 200,
  "meta": {
    "pagination": {
      "total": 1504,
      "pages": 76,
      "page": 76,
      "limit": 20
    }
  },
  "data": [
    {
      "id": 1576,
      "name": "gsadf",
      "email": "gad@gmail.com",
      "gender": "Male",
      "status": "Active",
      "created_at": "2021-02-16T16:07:32.533+05:30",
      "updated_at": "2021-02-16T16:07:32.533+05:30"
    },
    {
      "id": 1577,
      "name": "Girid",
      "email": "gid@gmail.com",
      "gender": "Male",
      "status": "Active",
      "created_at": "2021-02-16T16:08:43.510+05:30",
      "updated_at": "2021-02-16T16:08:43.510+05:30"
    },
    {
      "id": 1578,
      "name": "Girid",
      "email": "gafsdid@gmail.com",
      "gender": "Male",
      "status": "Active",
      "created_at": "2021-02-16T16:10:04.291+05:30",
      "updated_at": "2021-02-16T16:10:04.291+05:30"
    },
    {
      "id": 1579,
      "name": "Girid",
      "email": "gafsdafsdid@gmail.com",
      "gender": "Male",
      "status": "Active",
      "created_at": "2021-02-16T16:10:19.681+05:30",
      "updated_at": "2021-02-16T16:10:19.681+05:30"
    }
  ]
}